127.0.0.1 - - [05/Jan/2024:17:28:25 +0530] "GET / HTTP/1.1" 404 751
0:0:0:0:0:0:0:1 - - [05/Jan/2024:17:28:26 +0530] "GET /studentWebApp1/Login.HTML HTTP/1.1" 304 -
0:0:0:0:0:0:0:1 - - [05/Jan/2024:17:28:35 +0530] "POST /studentWebApp1/LoginServlet HTTP/1.1" 200 196
0:0:0:0:0:0:0:1 - - [05/Jan/2024:17:28:48 +0530] "GET /studentWebApp1/Logout HTTP/1.1" 304 -
0:0:0:0:0:0:0:1 - - [05/Jan/2024:17:29:02 +0530] "POST /studentWebApp1/LoginServlet HTTP/1.1" 200 676
