127.0.0.1 - - [14/Jan/2024:13:00:26 +0530] "GET / HTTP/1.1" 404 751
0:0:0:0:0:0:0:1 - - [14/Jan/2024:13:00:26 +0530] "GET /studentWebApp1/Login.html HTTP/1.1" 404 780
0:0:0:0:0:0:0:1 - - [14/Jan/2024:13:00:26 +0530] "GET /favicon.ico HTTP/1.1" 404 762
127.0.0.1 - - [14/Jan/2024:13:08:10 +0530] "GET / HTTP/1.1" 404 751
0:0:0:0:0:0:0:1 - - [14/Jan/2024:13:08:10 +0530] "GET /studentWebApp1/Login.html HTTP/1.1" 200 596
0:0:0:0:0:0:0:1 - - [14/Jan/2024:13:09:05 +0530] "POST /studentWebApp1/Login HTTP/1.1" 500 8
0:0:0:0:0:0:0:1 - - [14/Jan/2024:13:09:20 +0530] "POST /studentWebApp1/Login HTTP/1.1" 500 8
0:0:0:0:0:0:0:1 - - [14/Jan/2024:13:09:40 +0530] "GET /studentWebApp1/Register.html HTTP/1.1" 404 783
0:0:0:0:0:0:0:1 - - [14/Jan/2024:13:09:41 +0530] "GET /favicon.ico HTTP/1.1" 404 762
127.0.0.1 - - [14/Jan/2024:13:13:04 +0530] "GET / HTTP/1.1" 404 751
0:0:0:0:0:0:0:1 - - [14/Jan/2024:13:13:04 +0530] "GET /studentWebApp1/Register.html HTTP/1.1" 200 1037
0:0:0:0:0:0:0:1 - - [14/Jan/2024:13:13:26 +0530] "POST /studentWebApp1/Register HTTP/1.1" 500 1280
127.0.0.1 - - [14/Jan/2024:13:16:14 +0530] "GET / HTTP/1.1" 404 751
0:0:0:0:0:0:0:1 - - [14/Jan/2024:13:16:14 +0530] "GET /studentWebApp1/Register.html HTTP/1.1" 304 -
0:0:0:0:0:0:0:1 - - [14/Jan/2024:13:16:36 +0530] "POST /studentWebApp1/Register HTTP/1.1" 200 1125
127.0.0.1 - - [14/Jan/2024:13:35:22 +0530] "GET / HTTP/1.1" 404 751
0:0:0:0:0:0:0:1 - - [14/Jan/2024:13:35:22 +0530] "GET /studentWebApp1/Register.html HTTP/1.1" 304 -
0:0:0:0:0:0:0:1 - - [14/Jan/2024:13:36:15 +0530] "POST /studentWebApp1/Register HTTP/1.1" 500 10
127.0.0.1 - - [14/Jan/2024:13:36:56 +0530] "GET / HTTP/1.1" 404 751
0:0:0:0:0:0:0:1 - - [14/Jan/2024:13:36:57 +0530] "GET /favicon.ico HTTP/1.1" 404 762
0:0:0:0:0:0:0:1 - - [14/Jan/2024:13:37:21 +0530] "POST /studentWebApp1/Register HTTP/1.1" 500 10
127.0.0.1 - - [14/Jan/2024:13:40:37 +0530] "GET / HTTP/1.1" 404 751
0:0:0:0:0:0:0:1 - - [14/Jan/2024:13:40:38 +0530] "GET /studentWebApp1/Login.html HTTP/1.1" 304 -
0:0:0:0:0:0:0:1 - - [14/Jan/2024:13:40:53 +0530] "POST /studentWebApp1/Login HTTP/1.1" 404 741
127.0.0.1 - - [14/Jan/2024:13:44:08 +0530] "GET / HTTP/1.1" 404 751
0:0:0:0:0:0:0:1 - - [14/Jan/2024:13:44:09 +0530] "GET /studentWebApp1/Register HTTP/1.1" 500 10
127.0.0.1 - - [14/Jan/2024:13:45:55 +0530] "GET / HTTP/1.1" 404 751
0:0:0:0:0:0:0:1 - - [14/Jan/2024:13:45:55 +0530] "GET /studentWebApp1/Login.html HTTP/1.1" 304 -
0:0:0:0:0:0:0:1 - - [14/Jan/2024:13:46:02 +0530] "POST /studentWebApp1/Login HTTP/1.1" 404 775
127.0.0.1 - - [14/Jan/2024:13:46:43 +0530] "GET / HTTP/1.1" 404 751
0:0:0:0:0:0:0:1 - - [14/Jan/2024:13:46:54 +0530] "POST /studentWebApp1/Login HTTP/1.1" 200 306
0:0:0:0:0:0:0:1 - - [14/Jan/2024:13:46:59 +0530] "GET /studentWebApp1/GetAllStu HTTP/1.1" 404 779
0:0:0:0:0:0:0:1 - - [14/Jan/2024:13:48:20 +0530] "GET /studentWebApp1/Logout HTTP/1.1" 200 596
127.0.0.1 - - [14/Jan/2024:15:01:41 +0530] "GET / HTTP/1.1" 404 751
0:0:0:0:0:0:0:1 - - [14/Jan/2024:15:01:42 +0530] "GET /studentWebApp1/Login.html HTTP/1.1" 304 -
0:0:0:0:0:0:0:1 - - [14/Jan/2024:15:01:42 +0530] "GET /favicon.ico HTTP/1.1" 404 762
0:0:0:0:0:0:0:1 - - [14/Jan/2024:15:01:55 +0530] "POST /studentWebApp1/Login HTTP/1.1" 200 306
0:0:0:0:0:0:0:1 - - [14/Jan/2024:15:01:57 +0530] "GET /studentWebApp1/GetAllStu HTTP/1.1" 200 712
0:0:0:0:0:0:0:1 - - [14/Jan/2024:15:02:02 +0530] "GET /studentWebApp1/GetStuById.HTML HTTP/1.1" 404 785
0:0:0:0:0:0:0:1 - - [14/Jan/2024:15:13:14 +0530] "GET /studentWebApp1/GetStdById.html HTTP/1.1" 200 397
0:0:0:0:0:0:0:1 - - [14/Jan/2024:15:13:18 +0530] "POST /studentWebApp1/GetStdById HTTP/1.1" 404 780
127.0.0.1 - - [14/Jan/2024:15:18:19 +0530] "GET / HTTP/1.1" 404 751
0:0:0:0:0:0:0:1 - - [14/Jan/2024:15:18:26 +0530] "POST /studentWebApp1/GetStdById HTTP/1.1" 500 1245
127.0.0.1 - - [14/Jan/2024:15:20:00 +0530] "GET / HTTP/1.1" 404 751
0:0:0:0:0:0:0:1 - - [14/Jan/2024:15:20:05 +0530] "POST /studentWebApp1/GetStdById HTTP/1.1" 500 1245
127.0.0.1 - - [14/Jan/2024:15:29:11 +0530] "GET / HTTP/1.1" 404 751
0:0:0:0:0:0:0:1 - - [14/Jan/2024:15:29:16 +0530] "POST /studentWebApp1/GetStdById HTTP/1.1" 500 1245
127.0.0.1 - - [14/Jan/2024:15:30:13 +0530] "GET / HTTP/1.1" 404 751
0:0:0:0:0:0:0:1 - - [14/Jan/2024:15:30:22 +0530] "POST /studentWebApp1/GetStdById HTTP/1.1" 500 1245
127.0.0.1 - - [14/Jan/2024:15:31:15 +0530] "GET / HTTP/1.1" 404 751
0:0:0:0:0:0:0:1 - - [14/Jan/2024:15:31:21 +0530] "POST /studentWebApp1/GetStdById HTTP/1.1" 500 1245
127.0.0.1 - - [14/Jan/2024:15:54:38 +0530] "GET / HTTP/1.1" 404 751
0:0:0:0:0:0:0:1 - - [14/Jan/2024:15:54:39 +0530] "GET /studentWebApp1/Login.html HTTP/1.1" 200 598
0:0:0:0:0:0:0:1 - - [14/Jan/2024:15:54:48 +0530] "POST /studentWebApp1/Login HTTP/1.1" 200 285
0:0:0:0:0:0:0:1 - - [14/Jan/2024:15:54:51 +0530] "GET /studentWebApp1/Profile HTTP/1.1" 500 1612
127.0.0.1 - - [14/Jan/2024:15:55:46 +0530] "GET / HTTP/1.1" 404 751
0:0:0:0:0:0:0:1 - - [14/Jan/2024:15:56:00 +0530] "POST /studentWebApp1/Login HTTP/1.1" 200 285
0:0:0:0:0:0:0:1 - - [14/Jan/2024:15:56:06 +0530] "GET /studentWebApp1/Profile HTTP/1.1" 200 539
127.0.0.1 - - [14/Jan/2024:16:32:25 +0530] "GET / HTTP/1.1" 404 751
0:0:0:0:0:0:0:1 - - [14/Jan/2024:16:32:27 +0530] "GET /studentWebApp1/GetAllStu.jsp HTTP/1.1" 500 2393
0:0:0:0:0:0:0:1 - - [14/Jan/2024:16:33:39 +0530] "GET /studentWebApp1/GetAllStu.jsp HTTP/1.1" 500 2397
127.0.0.1 - - [14/Jan/2024:16:38:04 +0530] "GET / HTTP/1.1" 404 751
0:0:0:0:0:0:0:1 - - [14/Jan/2024:16:38:04 +0530] "GET /studentWebApp1/Login.html HTTP/1.1" 304 -
0:0:0:0:0:0:0:1 - - [14/Jan/2024:16:38:14 +0530] "POST /studentWebApp1/Login HTTP/1.1" 200 580
0:0:0:0:0:0:0:1 - - [14/Jan/2024:16:38:17 +0530] "GET /studentWebApp1/EmpHomePage.jsp HTTP/1.1" 404 745
0:0:0:0:0:0:0:1 - - [14/Jan/2024:16:40:28 +0530] "POST /studentWebApp1/Login HTTP/1.1" 200 580
0:0:0:0:0:0:0:1 - - [14/Jan/2024:16:40:32 +0530] "GET /studentWebApp1/EmpHomePage.jsp HTTP/1.1" 404 745
127.0.0.1 - - [14/Jan/2024:16:54:56 +0530] "GET / HTTP/1.1" 404 751
0:0:0:0:0:0:0:1 - - [14/Jan/2024:16:55:02 +0530] "POST /studentWebApp1/GetStdById HTTP/1.1" 500 1245
0:0:0:0:0:0:0:1 - - [14/Jan/2024:16:55:25 +0530] "GET /studentWebApp1/Login.html HTTP/1.1" 304 -
0:0:0:0:0:0:0:1 - - [14/Jan/2024:16:55:46 +0530] "POST /studentWebApp1/Login HTTP/1.1" 200 670
0:0:0:0:0:0:0:1 - - [14/Jan/2024:16:55:48 +0530] "GET /studentWebApp1/GetAllStudent HTTP/1.1" 404 783
0:0:0:0:0:0:0:1 - - [14/Jan/2024:16:57:05 +0530] "POST /studentWebApp1/Login HTTP/1.1" 200 580
0:0:0:0:0:0:0:1 - - [14/Jan/2024:16:57:09 +0530] "GET /studentWebApp1/Profile HTTP/1.1" 200 834
0:0:0:0:0:0:0:1 - - [14/Jan/2024:16:57:11 +0530] "GET /studentWebApp1/Logout HTTP/1.1" 200 598
0:0:0:0:0:0:0:1 - - [14/Jan/2024:16:57:25 +0530] "POST /studentWebApp1/Login HTTP/1.1" 200 670
0:0:0:0:0:0:0:1 - - [14/Jan/2024:16:57:27 +0530] "GET /studentWebApp1/GetAllStudent HTTP/1.1" 404 783
127.0.0.1 - - [14/Jan/2024:17:05:10 +0530] "GET / HTTP/1.1" 404 751
0:0:0:0:0:0:0:1 - - [14/Jan/2024:17:05:21 +0530] "POST /studentWebApp1/Login HTTP/1.1" 200 584
0:0:0:0:0:0:0:1 - - [14/Jan/2024:17:05:23 +0530] "GET /studentWebApp1/StudentHomePage.jsp HTTP/1.1" 200 584
0:0:0:0:0:0:0:1 - - [14/Jan/2024:17:05:27 +0530] "GET /studentWebApp1/StudentHomePage.jsp HTTP/1.1" 200 584
0:0:0:0:0:0:0:1 - - [14/Jan/2024:17:05:28 +0530] "GET /studentWebApp1/StudentHomePage.jsp HTTP/1.1" 200 584
0:0:0:0:0:0:0:1 - - [14/Jan/2024:17:05:38 +0530] "POST /studentWebApp1/Login HTTP/1.1" 200 663
0:0:0:0:0:0:0:1 - - [14/Jan/2024:17:05:41 +0530] "GET /studentWebApp1/GetAllEmps HTTP/1.1" 404 780
127.0.0.1 - - [14/Jan/2024:17:24:25 +0530] "GET / HTTP/1.1" 404 751
0:0:0:0:0:0:0:1 - - [14/Jan/2024:17:24:25 +0530] "GET /studentWebApp1/Login.html HTTP/1.1" 304 -
0:0:0:0:0:0:0:1 - - [14/Jan/2024:17:24:38 +0530] "POST /studentWebApp1/Login HTTP/1.1" 200 664
0:0:0:0:0:0:0:1 - - [14/Jan/2024:17:24:41 +0530] "GET /studentWebApp1/GetAllStu HTTP/1.1" 500 2877
127.0.0.1 - - [14/Jan/2024:17:27:47 +0530] "GET / HTTP/1.1" 404 751
0:0:0:0:0:0:0:1 - - [14/Jan/2024:17:27:48 +0530] "GET /favicon.ico HTTP/1.1" 404 762
0:0:0:0:0:0:0:1 - - [14/Jan/2024:17:27:57 +0530] "POST /studentWebApp1/Login HTTP/1.1" 200 664
0:0:0:0:0:0:0:1 - - [14/Jan/2024:17:28:01 +0530] "GET /studentWebApp1/GetAllStu HTTP/1.1" 200 1507
0:0:0:0:0:0:0:1 - - [14/Jan/2024:17:28:05 +0530] "GET /studentWebApp1/GetStuById.jsp HTTP/1.1" 200 1211
0:0:0:0:0:0:0:1 - - [14/Jan/2024:17:28:10 +0530] "POST /studentWebApp1/GetStuById HTTP/1.1" 404 780
0:0:0:0:0:0:0:1 - - [14/Jan/2024:17:32:39 +0530] "POST /studentWebApp1/Login HTTP/1.1" 200 623
0:0:0:0:0:0:0:1 - - [14/Jan/2024:17:32:41 +0530] "GET /studentWebApp1/Profile.jsp HTTP/1.1" 404 741
127.0.0.1 - - [14/Jan/2024:20:14:00 +0530] "GET / HTTP/1.1" 404 751
0:0:0:0:0:0:0:1 - - [14/Jan/2024:20:14:02 +0530] "GET /studentWebApp1/GetStuById.jsp HTTP/1.1" 200 1217
0:0:0:0:0:0:0:1 - - [14/Jan/2024:20:14:02 +0530] "GET /favicon.ico HTTP/1.1" 404 762
0:0:0:0:0:0:0:1 - - [14/Jan/2024:20:14:16 +0530] "POST /studentWebApp1/GetStuById HTTP/1.1" 404 780
0:0:0:0:0:0:0:1 - - [14/Jan/2024:20:19:09 +0530] "GET /studentWebApp1/GetStudentById.jsp HTTP/1.1" 200 1209
0:0:0:0:0:0:0:1 - - [14/Jan/2024:20:19:15 +0530] "GET /studentWebApp1/GetStuById.jsp HTTP/1.1" 200 1217
0:0:0:0:0:0:0:1 - - [14/Jan/2024:20:19:19 +0530] "POST /studentWebApp1/GetStuById HTTP/1.1" 404 780
127.0.0.1 - - [14/Jan/2024:20:21:15 +0530] "GET / HTTP/1.1" 404 751
0:0:0:0:0:0:0:1 - - [14/Jan/2024:20:21:16 +0530] "GET /studentWebApp1/Login.html HTTP/1.1" 304 -
0:0:0:0:0:0:0:1 - - [14/Jan/2024:20:21:16 +0530] "GET /favicon.ico HTTP/1.1" 404 762
0:0:0:0:0:0:0:1 - - [14/Jan/2024:20:21:24 +0530] "POST /studentWebApp1/Login HTTP/1.1" 200 623
0:0:0:0:0:0:0:1 - - [14/Jan/2024:20:21:30 +0530] "GET /studentWebApp1/Logout HTTP/1.1" 304 -
127.0.0.1 - - [14/Jan/2024:23:06:25 +0530] "GET / HTTP/1.1" 404 751
0:0:0:0:0:0:0:1 - - [14/Jan/2024:23:06:26 +0530] "GET /studentWebApp1/Login.html HTTP/1.1" 304 -
0:0:0:0:0:0:0:1 - - [14/Jan/2024:23:06:26 +0530] "GET /favicon.ico HTTP/1.1" 404 762
0:0:0:0:0:0:0:1 - - [14/Jan/2024:23:06:35 +0530] "POST /studentWebApp1/Login HTTP/1.1" 200 664
0:0:0:0:0:0:0:1 - - [14/Jan/2024:23:06:40 +0530] "GET /studentWebApp1/GetAllStu HTTP/1.1" 200 1655
0:0:0:0:0:0:0:1 - - [14/Jan/2024:23:12:20 +0530] "GET /studentWebApp1/DeleteStudent?studentId=101 HTTP/1.1" 404 776
127.0.0.1 - - [14/Jan/2024:23:15:44 +0530] "GET / HTTP/1.1" 404 751
0:0:0:0:0:0:0:1 - - [14/Jan/2024:23:15:53 +0530] "POST /studentWebApp1/Login HTTP/1.1" 200 664
0:0:0:0:0:0:0:1 - - [14/Jan/2024:23:15:56 +0530] "GET /studentWebApp1/GetAllStu HTTP/1.1" 200 1484
