127.0.0.1 - - [04/Jan/2024:20:51:26 +0530] "GET / HTTP/1.1" 404 751
0:0:0:0:0:0:0:1 - - [04/Jan/2024:20:51:27 +0530] "GET /studentWebApp1/Login.HTML HTTP/1.1" 200 558
0:0:0:0:0:0:0:1 - - [04/Jan/2024:20:51:34 +0530] "POST /studentWebApp1/LoginServlet HTTP/1.1" 200 122
127.0.0.1 - - [04/Jan/2024:20:53:36 +0530] "GET / HTTP/1.1" 404 751
0:0:0:0:0:0:0:1 - - [04/Jan/2024:20:53:36 +0530] "GET /studentWebApp1/AdminHomePage HTTP/1.1" 200 105
0:0:0:0:0:0:0:1 - - [04/Jan/2024:20:53:43 +0530] "GET /studentWebApp1/AdminHomePage HTTP/1.1" 200 105
0:0:0:0:0:0:0:1 - - [04/Jan/2024:20:53:45 +0530] "GET /studentWebApp1/AdminHomePage HTTP/1.1" 200 105
0:0:0:0:0:0:0:1 - - [04/Jan/2024:20:54:21 +0530] "GET /studentWebApp1/Login.HTML HTTP/1.1" 304 -
0:0:0:0:0:0:0:1 - - [04/Jan/2024:20:54:28 +0530] "POST /studentWebApp1/LoginServlet HTTP/1.1" 200 122
127.0.0.1 - - [04/Jan/2024:22:13:32 +0530] "GET / HTTP/1.1" 404 751
0:0:0:0:0:0:0:1 - - [04/Jan/2024:22:13:32 +0530] "GET /studentWebApp1/Login.HTML HTTP/1.1" 304 -
0:0:0:0:0:0:0:1 - - [04/Jan/2024:22:13:39 +0530] "POST /studentWebApp1/LoginServlet HTTP/1.1" 200 196
0:0:0:0:0:0:0:1 - - [04/Jan/2024:22:13:42 +0530] "GET /studentWebApp1/Logout HTTP/1.1" 404 780
127.0.0.1 - - [04/Jan/2024:22:14:40 +0530] "GET / HTTP/1.1" 404 751
0:0:0:0:0:0:0:1 - - [04/Jan/2024:22:14:48 +0530] "POST /studentWebApp1/LoginServlet HTTP/1.1" 200 196
0:0:0:0:0:0:0:1 - - [04/Jan/2024:22:14:50 +0530] "GET /studentWebApp1/Logout HTTP/1.1" 200 558
0:0:0:0:0:0:0:1 - - [04/Jan/2024:22:19:08 +0530] "POST /studentWebApp1/LoginServlet HTTP/1.1" 200 676
127.0.0.1 - - [04/Jan/2024:22:27:16 +0530] "GET / HTTP/1.1" 404 751
0:0:0:0:0:0:0:1 - - [04/Jan/2024:22:27:16 +0530] "GET /studentWebApp1/Login.HTML HTTP/1.1" 304 -
0:0:0:0:0:0:0:1 - - [04/Jan/2024:22:27:35 +0530] "POST /studentWebApp1/LoginServlet HTTP/1.1" 200 676
0:0:0:0:0:0:0:1 - - [04/Jan/2024:22:28:08 +0530] "POST /studentWebApp1/LoginServlet HTTP/1.1" 200 676
0:0:0:0:0:0:0:1 - - [04/Jan/2024:22:28:19 +0530] "POST /studentWebApp1/LoginServlet HTTP/1.1" 200 676
0:0:0:0:0:0:0:1 - - [04/Jan/2024:22:28:21 +0530] "POST /studentWebApp1/LoginServlet HTTP/1.1" 200 676
127.0.0.1 - - [04/Jan/2024:22:29:24 +0530] "GET / HTTP/1.1" 404 751
0:0:0:0:0:0:0:1 - - [04/Jan/2024:22:29:37 +0530] "POST /studentWebApp1/LoginServlet HTTP/1.1" 200 214
0:0:0:0:0:0:0:1 - - [04/Jan/2024:22:29:45 +0530] "GET /studentWebApp1/Logout HTTP/1.1" 304 -
0:0:0:0:0:0:0:1 - - [04/Jan/2024:22:31:27 +0530] "POST /studentWebApp1/LoginServlet HTTP/1.1" 200 216
