INDEX VERSION 1.130+C:\FSD56\fsdstudent\AdvJava\workspace1\studentWebApp1\.metadata\.plugins\org.eclipse.jdt.core
4135958314.index
103378668.index
542153213.index
1961815414.index
3053688665.index
2630962946.index
3055409743.index
2639943656.index
3559605318.index
1479583751.index
2885606711.index
2066830214.index
1946725198.index
4242768837.index
1956904976.index
3759208973.index
1346282565.index
674573568.index
1567337592.index
2630054153.index
4138326577.index
3438832635.index
742756006.index
3309059061.index
2071284195.index
2828534321.index
4144913915.index
2768903234.index
1009263839.index
413987597.index
3644761064.index
2039946751.index
3334421423.index
2690882268.index
895354549.index
3262232459.index
2507423472.index
2278298879.index
2337850622.index
2534643244.index
891402918.index
2205283528.index
3348520720.index
4259073463.index
3869243238.index
1036696968.index
3040837599.index
4276554980.index
411227453.index
