<?xml version="1.0" encoding="UTF-8"?>
<session version="1.0">
<refactoring accessors="true" comment="Delete element from project &apos;StuCour&apos;&#x0D;&#x0A;- Original project: &apos;StuCour&apos;&#x0D;&#x0A;- Original element: &apos;com.dao.Student.java&apos;" description="Delete element" element1="/src\/main\/java&lt;com.dao{Student.java" elements="1" flags="589830" id="org.eclipse.jdt.ui.delete" resources="0" stamp="1706450745749" subPackages="false" version="1.0"/>
</session>